,asm_group_id,attempt,category,email,event,ip,reason,response,sg_event_id,sg_message_id,smtp-id,status,timestamp,url,useragent
0,,,cat facts,example@test.com,processed,,,,VU0efrYTJ7EsNWgfqFtQPw==,14c5d75ce93.dfd.64b469.filter0001.16648.5515E0B88.0,<14c5d75ce93.dfd.64b469@ismtpd-555>,,2017-10-26 16:32:47,,
1,,5.0,cat facts,example@test.com,deferred,,,400 try again later,4Rg-dH8kX46q1IpS3h-SFw==,14c5d75ce93.dfd.64b469.filter0001.16648.5515E0B88.0,<14c5d75ce93.dfd.64b469@ismtpd-555>,,2017-10-26 16:32:47,,
2,,,cat facts,example@test.com,delivered,,,250 OK,eGnd1Zwl20JfRxu4Ijj8nA==,14c5d75ce93.dfd.64b469.filter0001.16648.5515E0B88.0,<14c5d75ce93.dfd.64b469@ismtpd-555>,,2017-10-26 16:32:47,,
3,,,cat facts,example@test.com,open,255.255.255.255,,,HomVxyYlTZSnv6gkE2Nbvw==,14c5d75ce93.dfd.64b469.filter0001.16648.5515E0B88.0,<14c5d75ce93.dfd.64b469@ismtpd-555>,,2017-10-26 16:32:47,,Mozilla/4.0 (compatible; MSIE 6.1; Windows XP; .NET CLR 1.1.4322; .NET CLR 2.0.50727)
4,,,cat facts,example@test.com,click,255.255.255.255,,,eLHibcvnMegPP4nOXMP3wA==,14c5d75ce93.dfd.64b469.filter0001.16648.5515E0B88.0,<14c5d75ce93.dfd.64b469@ismtpd-555>,,2017-10-26 16:32:47,http://www.sendgrid.com/,Mozilla/4.0 (compatible; MSIE 6.1; Windows XP; .NET CLR 1.1.4322; .NET CLR 2.0.50727)
5,,,cat facts,example@test.com,bounce,,500 unknown recipient,,PO5nEWDZnCfUTNTTmRGprQ==,14c5d75ce93.dfd.64b469.filter0001.16648.5515E0B88.0,<14c5d75ce93.dfd.64b469@ismtpd-555>,5.0.0,2017-10-26 16:32:47,,
6,,,cat facts,example@test.com,dropped,,Bounced Address,,-ieHZcKcE39jLZPIAXEx_g==,14c5d75ce93.dfd.64b469.filter0001.16648.5515E0B88.0,<14c5d75ce93.dfd.64b469@ismtpd-555>,5.0.0,2017-10-26 16:32:47,,
7,,,cat facts,example@test.com,spamreport,,,,iJqzau2FK0JiX3JbgW-Haw==,14c5d75ce93.dfd.64b469.filter0001.16648.5515E0B88.0,<14c5d75ce93.dfd.64b469@ismtpd-555>,,2017-10-26 16:32:47,,
8,,,cat facts,example@test.com,unsubscribe,,,,Wmzq1poqaZeXEYqIhNUoEw==,14c5d75ce93.dfd.64b469.filter0001.16648.5515E0B88.0,<14c5d75ce93.dfd.64b469@ismtpd-555>,,2017-10-26 16:32:47,,
9,10.0,,cat facts,example@test.com,group_unsubscribe,255.255.255.255,,,llEcYqoa4qTmyAYI0YkEwg==,14c5d75ce93.dfd.64b469.filter0001.16648.5515E0B88.0,<14c5d75ce93.dfd.64b469@ismtpd-555>,,2017-10-26 16:32:47,http://www.sendgrid.com/,Mozilla/4.0 (compatible; MSIE 6.1; Windows XP; .NET CLR 1.1.4322; .NET CLR 2.0.50727)
10,10.0,,cat facts,example@test.com,group_resubscribe,255.255.255.255,,,k3CcNdtQms1kwhBvOmxR4A==,14c5d75ce93.dfd.64b469.filter0001.16648.5515E0B88.0,<14c5d75ce93.dfd.64b469@ismtpd-555>,,2017-10-26 16:32:47,http://www.sendgrid.com/,Mozilla/4.0 (compatible; MSIE 6.1; Windows XP; .NET CLR 1.1.4322; .NET CLR 2.0.50727)
